%YAML 1.1
%TAG !u! tag:unity3d.com,2011:
--- !u!114 &11400000
MonoBehaviour:
  m_ObjectHideFlags: 0
  m_CorrespondingSourceObject: {fileID: 0}
  m_PrefabInstance: {fileID: 0}
  m_PrefabAsset: {fileID: 0}
  m_GameObject: {fileID: 0}
  m_Enabled: 1
  m_EditorHideFlags: 0
  m_Script: {fileID: 11500000, guid: 095e62c4a4bec214c8c6a4acb4a2c904, type: 3}
  m_Name: ItemTool003
  m_EditorClassIdentifier: 
  itemName: 
  itemPatch: 
  itemIcon: {fileID: 0}
  itemPrice: 0
  itemID: 0
  itemToolType: 6
  quality: 0
  description: 
